\relax 
\providecommand\hyper@newdestlabel[2]{}
\providecommand\HyperFirstAtBeginDocument{\AtBeginDocument}
\HyperFirstAtBeginDocument{\ifx\hyper@anchor\@undefined
\global\let\oldcontentsline\contentsline
\gdef\contentsline#1#2#3#4{\oldcontentsline{#1}{#2}{#3}}
\global\let\oldnewlabel\newlabel
\gdef\newlabel#1#2{\newlabelxx{#1}#2}
\gdef\newlabelxx#1#2#3#4#5#6{\oldnewlabel{#1}{{#2}{#3}}}
\AtEndDocument{\ifx\hyper@anchor\@undefined
\let\contentsline\oldcontentsline
\let\newlabel\oldnewlabel
\fi}
\fi}
\global\let\hyper@last\relax 
\gdef\HyperFirstAtBeginDocument#1{#1}
\providecommand\HyField@AuxAddToFields[1]{}
\providecommand\HyField@AuxAddToCoFields[2]{}
\@writefile{toc}{\contentsline {chapter}{\textit  {List of Figures}}{iii}{dummy.2}}
\@writefile{toc}{\contentsline {chapter}{\textit  {List of Tables}}{v}{dummy.4}}
\@writefile{toc}{\contentsline {chapter}{\textit  {Table of Contents}}{vii}{dummy.6}}
\@writefile{toc}{\contentsline {chapter}{\numberline {1}Installation and configuration of PostgreSQL and Pgadmin on machine and preparing to accept connections from all Ip addresses.}{1}{chapter.8}}
\@writefile{lof}{\addvspace {10\p@ }}
\@writefile{lot}{\addvspace {10\p@ }}
\newlabel{Chapter:1}{{1}{1}{Installation and configuration of PostgreSQL and Pgadmin on machine and preparing to accept connections from all Ip addresses}{chapter.8}{}}
\@writefile{toc}{\contentsline {section}{\numberline {1.1} Installation and conﬁguration of PostgreSQL 9.5 }{1}{section.9}}
\@writefile{toc}{\contentsline {subsection}{\numberline {1.1.1}Introduction}{1}{subsection.10}}
\@writefile{toc}{\contentsline {subsection}{\numberline {1.1.2} Add the PostgreSQL repository}{1}{subsection.11}}
\@writefile{lof}{\contentsline {figure}{\numberline {1.1}{\ignorespaces Adding the repository for postgresql\relax }}{2}{figure.caption.16}}
\providecommand*\caption@xref[2]{\@setref\relax\@undefined{#1}}
\newlabel{fig:adding-the-repository-for-postgresql}{{1.1}{2}{Adding the repository for postgresql\relax }{figure.caption.16}{}}
\@writefile{lof}{\contentsline {figure}{\numberline {1.2}{\ignorespaces Installing postgresql\relax }}{2}{figure.caption.23}}
\newlabel{fig:installing-postgresql}{{1.2}{2}{Installing postgresql\relax }{figure.caption.23}{}}
\@writefile{toc}{\contentsline {subsection}{\numberline {1.1.3}Update the package list}{2}{subsection.17}}
\@writefile{toc}{\contentsline {subsection}{\numberline {1.1.4}PostgreSQL installation}{2}{subsection.20}}
\@writefile{toc}{\contentsline {subsection}{\numberline {1.1.5}Connecting to the Postgres server}{2}{subsection.24}}
\@writefile{lof}{\contentsline {figure}{\numberline {1.3}{\ignorespaces Connecting to postgresql\relax }}{3}{figure.caption.31}}
\newlabel{fig:connecting-to-postgresql}{{1.3}{3}{Connecting to postgresql\relax }{figure.caption.31}{}}
\@writefile{toc}{\contentsline {section}{\numberline {1.2}Installation and configuration of PgAdminIII}{3}{section.32}}
\@writefile{toc}{\contentsline {subsection}{\numberline {1.2.1}Connecting to database}{3}{subsection.36}}
\@writefile{lof}{\contentsline {figure}{\numberline {1.4}{\ignorespaces pPGadmin-iii interface\relax }}{4}{figure.caption.35}}
\newlabel{fig:pgadmin-iii-interface}{{1.4}{4}{pPGadmin-iii interface\relax }{figure.caption.35}{}}
\@writefile{toc}{\contentsline {section}{\numberline {1.3}Configuring PostgreSQL server 9.5 to accept from all IP addresses}{5}{section.47}}
\@writefile{toc}{\contentsline {chapter}{\numberline {2}Write the queries for Data Definition (CREATE, DROP, ALTER and RENAME) and Data Manipulation Language (SELECT, INSERT, UPDATE and DELETE).}{7}{chapter.71}}
\@writefile{lof}{\addvspace {10\p@ }}
\@writefile{lot}{\addvspace {10\p@ }}
\newlabel{Chapter:2}{{2}{7}{Write the queries for Data Definition (CREATE, DROP, ALTER and RENAME) and Data Manipulation Language (SELECT, INSERT, UPDATE and DELETE)}{chapter.71}{}}
\@writefile{toc}{\contentsline {section}{\numberline {2.1}Data Definition (CREATE, DROP, ALTER and RENAME)}{7}{section.72}}
\@writefile{toc}{\contentsline {subsection}{\numberline {2.1.1}CREATE SCHEMA}{7}{subsection.73}}
\@writefile{toc}{\contentsline {subsection}{\numberline {2.1.2}CREATE TABLE}{7}{subsection.76}}
\@writefile{lof}{\contentsline {figure}{\numberline {2.1}{\ignorespaces width=1\linewidth }}{7}{figure.caption.84}}
\newlabel{fig: Creation of Table}{{2.1}{7}{width=1\linewidth }{figure.caption.84}{}}
\@writefile{toc}{\contentsline {subsection}{\numberline {2.1.3}DROP TABLE}{7}{subsection.85}}
\@writefile{lof}{\contentsline {figure}{\numberline {2.2}{\ignorespaces Drop Table \relax }}{8}{figure.caption.88}}
\newlabel{fig: Drop Table}{{2.2}{8}{Drop Table \relax }{figure.caption.88}{}}
\@writefile{toc}{\contentsline {subsection}{\numberline {2.1.4}ALTER TABLE}{8}{subsection.89}}
\@writefile{lof}{\contentsline {figure}{\numberline {2.3}{\ignorespaces Alter Table \relax }}{9}{figure.caption.93}}
\newlabel{fig: Alter Table}{{2.3}{9}{Alter Table \relax }{figure.caption.93}{}}
\@writefile{toc}{\contentsline {subsection}{\numberline {2.1.5}RENAME TABLE}{9}{subsection.94}}
\@writefile{lof}{\contentsline {figure}{\numberline {2.4}{\ignorespaces Rename Table \relax }}{9}{figure.caption.97}}
\newlabel{fig: Rename Table}{{2.4}{9}{Rename Table \relax }{figure.caption.97}{}}
\@writefile{toc}{\contentsline {section}{\numberline {2.2}Data Manipulation (SELECT, INSERT, UPDATE and DELETE)}{10}{section.98}}
\@writefile{toc}{\contentsline {subsection}{\numberline {2.2.1}SELECT}{10}{subsection.99}}
\@writefile{lof}{\contentsline {figure}{\numberline {2.5}{\ignorespaces Select Query\relax }}{10}{figure.caption.102}}
\newlabel{fig: Select Query}{{2.5}{10}{Select Query\relax }{figure.caption.102}{}}
\@writefile{toc}{\contentsline {subsection}{\numberline {2.2.2}INSERT}{11}{subsection.103}}
\@writefile{lof}{\contentsline {figure}{\numberline {2.6}{\ignorespaces Inserting values into a Table \relax }}{11}{figure.caption.107}}
\newlabel{fig: Inserting values into a Table}{{2.6}{11}{Inserting values into a Table \relax }{figure.caption.107}{}}
\@writefile{toc}{\contentsline {subsection}{\numberline {2.2.3}UPDATE}{12}{subsection.108}}
\@writefile{lof}{\contentsline {figure}{\numberline {2.7}{\ignorespaces Updating a value in a Table \relax }}{12}{figure.caption.113}}
\newlabel{fig: Updating a value in a Table }{{2.7}{12}{Updating a value in a Table \relax }{figure.caption.113}{}}
\@writefile{toc}{\contentsline {subsection}{\numberline {2.2.4}DELETE}{13}{subsection.114}}
\@writefile{lof}{\contentsline {figure}{\numberline {2.8}{\ignorespaces Deleting a value from a Table \relax }}{13}{figure.caption.117}}
\newlabel{fig: Deleting a value from a Table}{{2.8}{13}{Deleting a value from a Table \relax }{figure.caption.117}{}}
\@writefile{toc}{\contentsline {chapter}{\numberline {3}Write SQL queries using Logical operators (<,>,=etc).}{15}{chapter.118}}
\@writefile{lof}{\addvspace {10\p@ }}
\@writefile{lot}{\addvspace {10\p@ }}
\newlabel{Chapter:3}{{3}{15}{Write SQL queries using Logical operators (<,>,=etc)}{chapter.118}{}}
\@writefile{toc}{\contentsline {section}{\numberline {3.1}Arithmetic Operators}{15}{section.119}}
\@writefile{toc}{\contentsline {subsection}{\numberline {3.1.1}Addition operator}{16}{subsection.120}}
\@writefile{lof}{\contentsline {figure}{\numberline {3.1}{\ignorespaces ADDITION\relax }}{16}{figure.caption.123}}
\newlabel{fig: Addition Operator}{{3.1}{16}{ADDITION\relax }{figure.caption.123}{}}
\@writefile{toc}{\contentsline {subsection}{\numberline {3.1.2}Subraction operator}{16}{subsection.124}}
\@writefile{lof}{\contentsline {figure}{\numberline {3.2}{\ignorespaces SUBTRACTION\relax }}{17}{figure.caption.127}}
\newlabel{fig: Subtraction Operator}{{3.2}{17}{SUBTRACTION\relax }{figure.caption.127}{}}
\@writefile{toc}{\contentsline {subsection}{\numberline {3.1.3}Multiplication operator}{17}{subsection.128}}
\@writefile{lof}{\contentsline {figure}{\numberline {3.3}{\ignorespaces MULTIPLICATION\relax }}{17}{figure.caption.131}}
\newlabel{fig: Multiplication Operator}{{3.3}{17}{MULTIPLICATION\relax }{figure.caption.131}{}}
\@writefile{toc}{\contentsline {subsection}{\numberline {3.1.4}Division operator}{18}{subsection.132}}
\@writefile{lof}{\contentsline {figure}{\numberline {3.4}{\ignorespaces DIVISION\relax }}{18}{figure.caption.135}}
\newlabel{fig: Division Operator}{{3.4}{18}{DIVISION\relax }{figure.caption.135}{}}
\@writefile{toc}{\contentsline {section}{\numberline {3.2}Comparison Operators}{18}{section.136}}
\@writefile{lof}{\contentsline {figure}{\numberline {3.5}{\ignorespaces '>' operator\relax }}{19}{figure.caption.139}}
\newlabel{fig:Comparison Operator}{{3.5}{19}{'>' operator\relax }{figure.caption.139}{}}
\@writefile{toc}{\contentsline {section}{\numberline {3.3}Logical Operators}{19}{section.140}}
\@writefile{lof}{\contentsline {figure}{\numberline {3.6}{\ignorespaces OR operator\relax }}{19}{figure.caption.143}}
\newlabel{fig:Logical Operator}{{3.6}{19}{OR operator\relax }{figure.caption.143}{}}
\@writefile{toc}{\contentsline {chapter}{\numberline {4}Write SQL queries using SQL operators (Between, AND, OR, IN, Like, NULL).}{21}{chapter.144}}
\@writefile{lof}{\addvspace {10\p@ }}
\@writefile{lot}{\addvspace {10\p@ }}
\@writefile{toc}{\contentsline {section}{\numberline {4.1}Between Operator}{21}{section.145}}
\@writefile{lof}{\contentsline {figure}{\numberline {4.1}{\ignorespaces BETWEEN operator\relax }}{21}{figure.caption.148}}
\newlabel{fig:BETWEEN Operator}{{4.1}{21}{BETWEEN operator\relax }{figure.caption.148}{}}
\@writefile{toc}{\contentsline {section}{\numberline {4.2}IN Operator}{21}{section.149}}
\@writefile{lof}{\contentsline {figure}{\numberline {4.2}{\ignorespaces IN operator\relax }}{21}{figure.caption.152}}
\newlabel{fig:IN Operator}{{4.2}{21}{IN operator\relax }{figure.caption.152}{}}
\@writefile{toc}{\contentsline {section}{\numberline {4.3}NOT IN Operator}{22}{section.153}}
\@writefile{lof}{\contentsline {figure}{\numberline {4.3}{\ignorespaces NOT IN operator\relax }}{22}{figure.caption.156}}
\newlabel{fig:NOT IN Operator}{{4.3}{22}{NOT IN operator\relax }{figure.caption.156}{}}
\@writefile{toc}{\contentsline {section}{\numberline {4.4}OR Operator}{22}{section.157}}
\@writefile{lof}{\contentsline {figure}{\numberline {4.4}{\ignorespaces OR operator\relax }}{22}{figure.caption.160}}
\newlabel{fig:OR Operator}{{4.4}{22}{OR operator\relax }{figure.caption.160}{}}
\@writefile{toc}{\contentsline {section}{\numberline {4.5}LIKE Operator}{22}{section.161}}
\@writefile{lof}{\contentsline {figure}{\numberline {4.5}{\ignorespaces LIKE operator\relax }}{23}{figure.caption.164}}
\newlabel{fig:LIKE Operator}{{4.5}{23}{LIKE operator\relax }{figure.caption.164}{}}
\@writefile{toc}{\contentsline {section}{\numberline {4.6}NOT LIKE Operator}{23}{section.165}}
\@writefile{lof}{\contentsline {figure}{\numberline {4.6}{\ignorespaces NOT LIKE operator\relax }}{23}{figure.caption.168}}
\newlabel{fig:NOT LIKE Operator}{{4.6}{23}{NOT LIKE operator\relax }{figure.caption.168}{}}
\@writefile{toc}{\contentsline {chapter}{\numberline {5}Write SQL query using character, number, date and group functions.}{25}{chapter.169}}
\@writefile{lof}{\addvspace {10\p@ }}
\@writefile{lot}{\addvspace {10\p@ }}
\@writefile{toc}{\contentsline {section}{\numberline {5.1}Character}{25}{section.170}}
\@writefile{toc}{\contentsline {section}{\numberline {5.2}Numeric Functions}{25}{section.171}}
\@writefile{toc}{\contentsline {subsection}{\numberline {5.2.1}ABS()}{25}{subsection.172}}
\@writefile{lof}{\contentsline {figure}{\numberline {5.1}{\ignorespaces abs() function\relax }}{26}{figure.caption.175}}
\newlabel{fig:abs() function}{{5.1}{26}{abs() function\relax }{figure.caption.175}{}}
\@writefile{toc}{\contentsline {subsection}{\numberline {5.2.2}ceil()}{26}{subsection.176}}
\@writefile{lof}{\contentsline {figure}{\numberline {5.2}{\ignorespaces Decimal Values\relax }}{26}{figure.caption.179}}
\newlabel{fig:Decimal Values}{{5.2}{26}{Decimal Values\relax }{figure.caption.179}{}}
\@writefile{lof}{\contentsline {figure}{\numberline {5.3}{\ignorespaces ceil() function\relax }}{27}{figure.caption.180}}
\newlabel{fig:ceil() function}{{5.3}{27}{ceil() function\relax }{figure.caption.180}{}}
\@writefile{toc}{\contentsline {subsection}{\numberline {5.2.3}floor()}{27}{subsection.181}}
\@writefile{lof}{\contentsline {figure}{\numberline {5.4}{\ignorespaces floor() function\relax }}{27}{figure.caption.184}}
\newlabel{fig:floor() function}{{5.4}{27}{floor() function\relax }{figure.caption.184}{}}
\@writefile{toc}{\contentsline {subsection}{\numberline {5.2.4}round()}{27}{subsection.185}}
\@writefile{lof}{\contentsline {figure}{\numberline {5.5}{\ignorespaces round() function\relax }}{28}{figure.caption.188}}
\newlabel{fig:round() function}{{5.5}{28}{round() function\relax }{figure.caption.188}{}}
\@writefile{toc}{\contentsline {section}{\numberline {5.3}Date And Time Functions}{28}{section.189}}
\@writefile{toc}{\contentsline {subsection}{\numberline {5.3.1}Age() Function}{28}{subsection.190}}
\@writefile{toc}{\contentsline {subsection}{\numberline {5.3.2}Current Date Function()}{28}{subsection.193}}
\@writefile{toc}{\contentsline {subsection}{\numberline {5.3.3}local time stamp()}{28}{subsection.196}}
\@writefile{lof}{\contentsline {figure}{\numberline {5.6}{\ignorespaces Age() function\relax }}{29}{figure.caption.199}}
\newlabel{fig:Age() function}{{5.6}{29}{Age() function\relax }{figure.caption.199}{}}
\@writefile{lof}{\contentsline {figure}{\numberline {5.7}{\ignorespaces current date function()\relax }}{29}{figure.caption.200}}
\newlabel{fig:current date function()}{{5.7}{29}{current date function()\relax }{figure.caption.200}{}}
\@writefile{lof}{\contentsline {figure}{\numberline {5.8}{\ignorespaces localtimestamp function()\relax }}{29}{figure.caption.201}}
\newlabel{fig:localtimestamp function()}{{5.8}{29}{localtimestamp function()\relax }{figure.caption.201}{}}
\@writefile{toc}{\contentsline {chapter}{\numberline {6}Write SQL queries for Relational Algebra (UNION, INTERSECT, and MINUS, etc.)}{31}{chapter.202}}
\@writefile{lof}{\addvspace {10\p@ }}
\@writefile{lot}{\addvspace {10\p@ }}
\@writefile{lof}{\contentsline {figure}{\numberline {6.1}{\ignorespaces Table 1\relax }}{31}{figure.caption.203}}
\newlabel{fig:Table 1}{{6.1}{31}{Table 1\relax }{figure.caption.203}{}}
\@writefile{lof}{\contentsline {figure}{\numberline {6.2}{\ignorespaces Table 2\relax }}{31}{figure.caption.204}}
\newlabel{fig:Table 2}{{6.2}{31}{Table 2\relax }{figure.caption.204}{}}
\@writefile{toc}{\contentsline {section}{\numberline {6.1}UNION}{32}{section.205}}
\@writefile{lof}{\contentsline {figure}{\numberline {6.3}{\ignorespaces Union Operator\relax }}{32}{figure.caption.210}}
\newlabel{fig:Union Operator}{{6.3}{32}{Union Operator\relax }{figure.caption.210}{}}
\@writefile{toc}{\contentsline {section}{\numberline {6.2}UNION ALL}{32}{section.211}}
\@writefile{lof}{\contentsline {figure}{\numberline {6.4}{\ignorespaces Union All Operator\relax }}{33}{figure.caption.216}}
\newlabel{fig:Union All Operator}{{6.4}{33}{Union All Operator\relax }{figure.caption.216}{}}
\@writefile{toc}{\contentsline {subsection}{\numberline {6.2.1}Order By}{33}{subsection.217}}
\@writefile{lof}{\contentsline {figure}{\numberline {6.5}{\ignorespaces Order By Clause\relax }}{33}{figure.caption.222}}
\newlabel{fig:Order By Clause}{{6.5}{33}{Order By Clause\relax }{figure.caption.222}{}}
\@writefile{toc}{\contentsline {section}{\numberline {6.3}INTERSECTION}{34}{section.223}}
\@writefile{lof}{\contentsline {figure}{\numberline {6.6}{\ignorespaces Intersect Operator\relax }}{34}{figure.caption.227}}
\newlabel{fig:Intersect Operator}{{6.6}{34}{Intersect Operator\relax }{figure.caption.227}{}}
\@writefile{toc}{\contentsline {chapter}{\numberline {7}Write SQL queries for extracting data from more than one table (Inner Join, Outer Join, Cross Join)}{35}{chapter.228}}
\@writefile{lof}{\addvspace {10\p@ }}
\@writefile{lot}{\addvspace {10\p@ }}
\@writefile{lof}{\contentsline {figure}{\numberline {7.1}{\ignorespaces Table 1\relax }}{35}{figure.caption.229}}
\newlabel{fig:Table 1}{{7.1}{35}{Table 1\relax }{figure.caption.229}{}}
\@writefile{lof}{\contentsline {figure}{\numberline {7.2}{\ignorespaces Table 2\relax }}{35}{figure.caption.230}}
\newlabel{fig:Table 2}{{7.2}{35}{Table 2\relax }{figure.caption.230}{}}
\@writefile{toc}{\contentsline {section}{\numberline {7.1}Inner Join}{35}{section.231}}
\@writefile{lof}{\contentsline {figure}{\numberline {7.3}{\ignorespaces Inner Join\relax }}{36}{figure.caption.241}}
\newlabel{fig:Inner Join}{{7.3}{36}{Inner Join\relax }{figure.caption.241}{}}
\@writefile{toc}{\contentsline {section}{\numberline {7.2}Left Outer Join}{36}{section.242}}
\@writefile{lof}{\contentsline {figure}{\numberline {7.4}{\ignorespaces Left Outer Join\relax }}{37}{figure.caption.252}}
\newlabel{fig:Left Outer Join}{{7.4}{37}{Left Outer Join\relax }{figure.caption.252}{}}
\@writefile{toc}{\contentsline {section}{\numberline {7.3}Right Outer Join}{37}{section.253}}
\@writefile{lof}{\contentsline {figure}{\numberline {7.5}{\ignorespaces Right Outer Join\relax }}{38}{figure.caption.263}}
\newlabel{fig:Right Outer Join}{{7.5}{38}{Right Outer Join\relax }{figure.caption.263}{}}
\@writefile{toc}{\contentsline {section}{\numberline {7.4}Full Outer Join}{38}{section.264}}
\@writefile{lof}{\contentsline {figure}{\numberline {7.6}{\ignorespaces Full Outer Join\relax }}{39}{figure.caption.274}}
\newlabel{fig:Full Outer Join}{{7.6}{39}{Full Outer Join\relax }{figure.caption.274}{}}
\@writefile{toc}{\contentsline {section}{\numberline {7.5}Cross Join}{39}{section.275}}
\@writefile{lof}{\contentsline {figure}{\numberline {7.7}{\ignorespaces Cross Join\relax }}{39}{figure.caption.280}}
\newlabel{fig:Cross Join}{{7.7}{39}{Cross Join\relax }{figure.caption.280}{}}
